<?xml version="1.0" encoding="UTF-8" standalone="no"?>
<svg width="129px" height="32px" viewBox="0 0 129 32" version="1.1" xmlns="http://www.w3.org/2000/svg" xmlns:xlink="http://www.w3.org/1999/xlink">
    <!-- Generator: Sketch 42 (36781) - http://www.bohemiancoding.com/sketch -->
    <title>tribalscale-logo-white</title>
    <desc>Created with Sketch.</desc>
    <defs>
        <polygon id="path-1" points="0 31.6405329 129 31.6405329 129 0.0201471271 0 0.0201471271"></polygon>
        <polygon id="path-3" points="0 31.6405329 129 31.6405329 129 0.0201471271 0 0.0201471271"></polygon>
        <polygon id="path-5" points="0 31.6405329 129 31.6405329 129 0.0201471271 0 0.0201471271"></polygon>
        <polygon id="path-7" points="0 31.6405329 129 31.6405329 129 0.0201471271 0 0.0201471271"></polygon>
        <polygon id="path-9" points="0 31.6405329 129 31.6405329 129 0.0201471271 0 0.0201471271"></polygon>
        <polygon id="path-11" points="0 31.6405329 129 31.6405329 129 0.0201471271 0 0.0201471271"></polygon>
        <polygon id="path-13" points="0 31.6405329 129 31.6405329 129 0.0201471271 0 0.0201471271"></polygon>
        <polygon id="path-15" points="0 31.6405329 129 31.6405329 129 0.0201471271 0 0.0201471271"></polygon>
        <polygon id="path-17" points="0 31.6405329 129 31.6405329 129 0.0201471271 0 0.0201471271"></polygon>
    </defs>
    <g id="Symbols" stroke="none" stroke-width="1" fill="none" fill-rule="evenodd">
        <g id="logo/tribalscale/white">
            <g id="tribalscale-logo-white">
                <polygon id="Fill-1" fill="#FFFFFF" fill-rule="nonzero" points="2.2513089 31.6203856 3.37696335 31.6203856 3.37696335 0 2.2513089 0"></polygon>
                <polygon id="Fill-2" fill="#FFFFFF" fill-rule="nonzero" points="0 26.9441314 1.12565445 26.9441314 1.12565445 4.898933 0 4.898933"></polygon>
                <polygon id="Fill-3" fill="#FFFFFF" fill-rule="nonzero" points="5.62827225 4.898933 4.5026178 4.898933 4.5026178 26.9441314 5.62827225 26.9441314"></polygon>
                <polygon id="Fill-4" fill="#FFFFFF" fill-rule="nonzero" points="16.6065988 11.5569045 20.2617801 11.5569045 20.2617801 10.4659023 11.7068063 10.4659023 11.7068063 11.5569045 15.3626458 11.5569045 15.3626458 20.9318046 16.6065988 20.9318046"></polygon>
                <path d="M30.3765207,13.6354707 C30.3765207,13.9745703 30.3078583,14.2785578 30.1714965,14.5474334 C30.0354554,14.8166253 29.8455113,15.0434297 29.6032683,15.2275304 C29.3600628,15.4116311 29.0722588,15.5536607 28.738894,15.6539354 C28.4052082,15.7532612 28.0410416,15.8035568 27.6467151,15.8035568 L24.3862208,15.8035568 L24.3862208,11.5572208 L27.661795,11.5572208 C28.5210357,11.5572208 29.1887278,11.7394235 29.6635883,12.1025637 C30.1390905,12.4666528 30.3765207,12.9775164 30.3765207,13.6354707 L30.3765207,13.6354707 Z M31.9685863,20.9318046 L28.7084131,16.6554178 C29.1226325,16.5855102 29.5070128,16.466256 29.860912,16.2970225 C30.2144906,16.1271564 30.520583,15.9152192 30.7782269,15.6618435 C31.0365124,15.4068862 31.2357613,15.1076435 31.3772568,14.7641155 C31.5190733,14.4199548 31.5893398,14.028978 31.5893398,13.5902364 C31.5893398,13.1220766 31.4982179,12.6956716 31.3169367,12.3119703 C31.1343722,11.9285854 30.87737,11.5996082 30.5430427,11.3253552 C30.2096778,11.0517347 29.8076508,10.8397975 29.3379239,10.6901762 C28.8678764,10.5408711 28.3391127,10.4659023 27.752596,10.4659023 L23.1884816,10.4659023 L23.1884816,20.9318046 L24.3862208,20.9318046 L24.3862208,16.8648244 L27.4192311,16.8648244 L30.4978026,20.9318046 L31.9685863,20.9318046 Z" id="Fill-5" fill="#FFFFFF" fill-rule="nonzero"></path>
                <g id="Fill-7-Clipped" transform="translate(0.000000, 0.202532)">
                    <mask id="mask-2" fill="white">
                        <use xlink:href="#path-1"></use>
                    </mask>
                    <g id="path-1"></g>
                    <polygon id="Fill-7" fill="#FFFFFF" fill-rule="nonzero" mask="url(#mask-2)" points="35.1204189 20.7292729 36.2460733 20.7292729 36.2460733 10.2633707 35.1204189 10.2633707"></polygon>
                </g>
                <g id="Fill-9-Clipped" transform="translate(0.000000, 0.202532)">
                    <mask id="mask-4" fill="white">
                        <use xlink:href="#path-3"></use>
                    </mask>
                    <g id="path-1"></g>
                    <path d="M45.2628676,19.6673727 L41.7047829,19.6673727 L41.7047829,15.974604 L45.0514202,15.974604 C45.979867,15.974604 46.6811678,16.1321334 47.1559635,16.4452944 C47.6301186,16.7594043 47.8671962,17.2060541 47.8671962,17.7836621 C47.8671962,18.3818311 47.6349243,18.8449297 47.1710213,19.1735906 C46.7064776,19.5028841 46.0702127,19.6673727 45.2628676,19.6673727 M44.8390115,14.9282036 L41.7047829,14.9282036 L41.7047829,11.3249547 L44.9299981,11.3249547 C45.6867237,11.3249547 46.2672434,11.4793209 46.6709159,11.7883696 C47.0749087,12.0977347 47.2764245,12.5162316 47.2764245,13.044493 C47.2764245,13.6622741 47.0495991,14.1304339 46.5956276,14.4492887 C46.1416564,14.7687762 45.5556905,14.9282036 44.8390115,14.9282036 M45.0360422,10.2633707 L40.5235602,10.2633707 L40.5235602,20.7292729 L45.2327525,20.7292729 C45.8078257,20.7292729 46.3329202,20.6644265 46.8073957,20.5347336 C47.2821914,20.4050406 47.6881065,20.2184093 48.0264225,19.9738908 C48.3647386,19.7296885 48.6245626,19.4282316 48.8065357,19.0692036 C48.9878679,18.710492 49.0785341,18.3068623 49.0785341,17.8583146 C49.0785341,17.4992866 49.0183035,17.1807482 48.8968814,16.9014339 C48.7757797,16.6227523 48.614631,16.3829786 48.412154,16.1840106 C48.2106382,15.9844101 47.9709976,15.812646 47.6935528,15.6680859 C47.4157877,15.5235257 47.1200817,15.4061694 46.8073957,15.3166497 C47.0194838,15.2271299 47.2235628,15.1145185 47.4209137,14.9807134 C47.6179445,14.8459593 47.7967137,14.6789401 47.9581826,14.4796559 C48.1196517,14.2800553 48.2484424,14.0507202 48.3442345,13.7919671 C48.4403471,13.5328975 48.4877626,13.2285937 48.4877626,12.8800044 C48.4877626,12.4808033 48.407028,12.1195611 48.2461998,11.7962777 C48.0844103,11.4720454 47.8521384,11.198425 47.549384,10.9735185 C47.2466298,10.7492446 46.8836449,10.57495 46.4594684,10.4500019 C46.0349715,10.3260029 45.5608165,10.2633707 45.0360422,10.2633707" id="Fill-9" fill="#FFFFFF" fill-rule="nonzero" mask="url(#mask-4)"></path>
                </g>
                <g id="Fill-10-Clipped" transform="translate(0.000000, 0.202532)">
                    <mask id="mask-6" fill="white">
                        <use xlink:href="#path-5"></use>
                    </mask>
                    <g id="path-1"></g>
                    <path d="M57.294798,10.2633707 L56.1714918,10.2633707 L51.3298429,20.7292729 L52.5591213,20.7292729 C54.404966,16.7058588 54.6149837,16.2180865 56.7177308,11.6290073 C58.7989621,16.1989274 59.0292109,16.7199925 60.8467962,20.7292729 L62.1361256,20.7292729 L57.294798,10.2633707 Z" id="Fill-10" fill="#FFFFFF" fill-rule="nonzero" mask="url(#mask-6)"></path>
                </g>
                <g id="Fill-11-Clipped" transform="translate(0.000000, 0.202532)">
                    <mask id="mask-8" fill="white">
                        <use xlink:href="#path-7"></use>
                    </mask>
                    <g id="path-1"></g>
                    <polygon id="Fill-11" fill="#FFFFFF" fill-rule="nonzero" mask="url(#mask-8)" points="65.0628272 20.7292729 72.2670157 20.7292729 72.2670157 19.6376382 66.2658349 19.6376382 66.2658349 10.2633707 65.0628272 10.2633707"></polygon>
                </g>
                <g id="Fill-12-Clipped" transform="translate(0.000000, 0.202532)">
                    <mask id="mask-10" fill="white">
                        <use xlink:href="#path-9"></use>
                    </mask>
                    <g id="path-1"></g>
                    <path d="M76.3496668,12.7872009 C76.3496668,12.5491114 76.402064,12.3270412 76.5068583,12.1184774 C76.6119701,11.91117 76.7621755,11.7333882 76.9571563,11.5848179 C77.1524549,11.4356194 77.3874483,11.3172029 77.6627716,11.228312 C77.9380948,11.1387929 78.2458092,11.0945045 78.5859144,11.0945045 C79.1260814,11.0945045 79.6440195,11.1837095 80.139411,11.3614913 C80.6344848,11.5399013 81.1276532,11.8269907 81.6176462,12.2227593 L82.3080186,11.3172029 C81.7675338,10.8915945 81.2102185,10.5724668 80.6344848,10.3595055 C80.0593862,10.1468584 79.3864796,10.0406919 78.6164,10.0406919 C78.1156101,10.0406919 77.6551501,10.1123072 77.2350201,10.2558518 C76.8148902,10.3993965 76.4496977,10.5969667 76.1394431,10.849819 C75.8291883,11.102043 75.5887964,11.4013823 75.4189026,11.7472087 C75.2486912,12.0946057 75.1639031,12.4756115 75.1639031,12.8914828 C75.1639031,13.3265142 75.2340834,13.7024944 75.3738093,14.0191094 C75.5138527,14.3363525 75.7291574,14.6127624 76.0190884,14.8502236 C76.3093369,15.0876848 76.6770697,15.2909089 77.1222868,15.4589535 C77.567504,15.6276263 78.0902055,15.7761966 78.6910263,15.9043503 C79.2407202,16.023395 79.6935588,16.1471512 80.0492243,16.2753049 C80.4045724,16.4044009 80.6821185,16.5485738 80.881863,16.706253 C81.0822423,16.8648746 81.2222858,17.0404577 81.302628,17.2336305 C81.3829704,17.4264892 81.4229827,17.6460466 81.4229827,17.8945013 C81.4229827,18.428789 81.2102185,18.8587949 80.7850075,19.185147 C80.3591615,19.5121273 79.7916844,19.6754604 79.0813057,19.6754604 C78.350921,19.6754604 77.7053244,19.554531 77.1451511,19.311416 C76.5843426,19.0692433 76.0292503,18.7004874 75.4789211,18.2054624 L74.7434555,19.0667305 C75.3738093,19.631172 76.0368715,20.0489278 76.7323249,20.320626 C77.4274606,20.5938949 78.1953174,20.7292729 79.0362125,20.7292729 C79.5560558,20.7292729 80.0368394,20.6604847 80.4772934,20.5219656 C80.9174295,20.3834465 81.2946892,20.1852482 81.6100248,19.9279985 C81.9253603,19.6704347 82.1727385,19.3588454 82.3527943,18.9926023 C82.5334852,18.6263593 82.6230366,18.2202252 82.6230366,17.7754566 C82.6230366,16.9735539 82.3454904,16.3447215 81.7903981,15.8902157 C81.2353056,15.4344535 80.3718639,15.0785758 79.2010253,14.8210121 C78.6211633,14.7019674 78.1454607,14.5760124 77.7751873,14.442519 C77.4052315,14.3087115 77.1146655,14.1601412 76.9047592,13.9971222 C76.694853,13.8337891 76.5497286,13.6528663 76.469704,13.4552961 C76.3893616,13.2570976 76.3496668,13.0343992 76.3496668,12.7872009" id="Fill-12" fill="#FFFFFF" fill-rule="nonzero" mask="url(#mask-10)"></path>
                </g>
                <g id="Fill-13-Clipped" transform="translate(0.000000, 0.202532)">
                    <mask id="mask-12" fill="white">
                        <use xlink:href="#path-11"></use>
                    </mask>
                    <g id="path-1"></g>
                    <path d="M95.0052357,19.0986511 L94.2070642,18.3301627 C93.6955073,18.8129392 93.1738882,19.1863417 92.6422067,19.4529211 C92.1105252,19.7188627 91.4762726,19.8521524 90.7397737,19.8521524 C90.1464198,19.8521524 89.5968857,19.7395895 89.0905224,19.5135073 C88.5844837,19.287425 88.1446617,18.9777975 87.7717055,18.5868569 C87.3984249,18.194322 87.1066167,17.7322723 86.8969304,17.1997513 C86.6869195,16.6665925 86.5827256,16.0942122 86.5827256,15.4813347 C86.5827256,14.869095 86.6869195,14.2986279 86.8969304,13.7705711 C87.1066167,13.2437898 87.3984249,12.7839723 87.7717055,12.3917562 C88.1446617,11.999859 88.5844837,11.6934203 89.0905224,11.4730778 C89.5968857,11.2520975 90.1464198,11.1404913 90.7397737,11.1404913 C91.4762726,11.1404913 92.1079284,11.2769697 92.6344166,11.5483322 C93.1612292,11.8193758 93.6549333,12.1656739 94.1152047,12.5878642 L94.9435632,11.7135094 C94.6777223,11.4625549 94.4021439,11.2339216 94.1152047,11.0282473 C93.8289146,10.8222542 93.5163326,10.6465541 93.1794063,10.5001906 C92.8421553,10.3551025 92.4760156,10.2419019 92.0826103,10.1615455 C91.6885558,10.081189 91.2464615,10.0406919 90.7550295,10.0406919 C89.9675697,10.0406919 89.2417821,10.1838667 88.5766933,10.4702163 C87.9122538,10.7568848 87.3390245,11.1484631 86.858304,11.645589 C86.3782325,12.1433527 86.0020306,12.723705 85.7309963,13.3869646 C85.4602867,14.0502243 85.3246074,14.7578077 85.3246074,15.5119467 C85.3246074,16.2753331 85.4602867,16.9886562 85.7309963,17.6519158 C86.0020306,18.3151756 86.3782325,18.8901069 86.858304,19.3776666 C87.3390245,19.8652262 87.9070602,20.2488326 88.5614375,20.5303992 C89.2161393,20.8119658 89.9321891,20.9519518 90.7095867,20.9519518 C91.2000449,20.9519518 91.6450605,20.9073094 92.0436592,20.8170677 C92.4432318,20.7265071 92.816188,20.6008705 93.1638258,20.4401576 C93.5114638,20.2794447 93.8360557,20.0858876 94.1379261,19.8598054 C94.4401211,19.6337231 94.7286832,19.3802176 95.0052357,19.0986511" id="Fill-13" fill="#FFFFFF" fill-rule="nonzero" mask="url(#mask-12)"></path>
                </g>
                <g id="Fill-14-Clipped" transform="translate(0.000000, 0.202532)">
                    <mask id="mask-14" fill="white">
                        <use xlink:href="#path-13"></use>
                    </mask>
                    <g id="path-1"></g>
                    <polygon id="Fill-14" fill="#FFFFFF" fill-rule="nonzero" mask="url(#mask-14)" points="110.764398 20.7292729 117.968586 20.7292729 117.968586 19.6376382 111.967406 19.6376382 111.967406 10.2633707 110.764398 10.2633707"></polygon>
                </g>
                <g id="Fill-15-Clipped" transform="translate(0.000000, 0.202532)">
                    <mask id="mask-16" fill="white">
                        <use xlink:href="#path-15"></use>
                    </mask>
                    <g id="path-1"></g>
                    <path d="M121.34555,20.7292729 L129,20.7292729 L129,19.6525054 L121.34555,19.6525054 L121.34555,20.7292729 Z M121.34555,16.0343893 L129,16.0343893 L129,14.9576217 L121.34555,14.9576217 L121.34555,16.0343893 Z M129,10.2633707 L121.34555,10.2633707 L121.34555,11.3395056 L129,11.3395056 L129,10.2633707 Z" id="Fill-15" fill="#FFFFFF" fill-rule="nonzero" mask="url(#mask-16)"></path>
                </g>
                <g id="Fill-16-Clipped" transform="translate(0.000000, 0.202532)">
                    <mask id="mask-18" fill="white">
                        <use xlink:href="#path-17"></use>
                    </mask>
                    <g id="path-1"></g>
                    <path d="M102.996048,10.2633707 L101.872741,10.2633707 L97.0314137,20.7292729 L98.2606922,20.7292729 C100.106537,16.7058588 100.316554,16.2180865 102.419301,11.6290073 C104.500212,16.1989274 104.731103,16.7199925 106.547725,20.7292729 L107.837696,20.7292729 L102.996048,10.2633707 Z" id="Fill-16" fill="#FFFFFF" fill-rule="nonzero" mask="url(#mask-18)"></path>
                </g>
            </g>
        </g>
    </g>
</svg>